…
## Il dataset | Cleaning {.build}

<!-- - Valori mancanti: Nomi -->
- Valori errati: Date di lancio


```
## # A tibble: 378,657 x 2
##    name                                                launched           
##    <chr>                                               <dttm>             
##  1 Salt of the Earth: A Dead Sea Movie (Canceled)      1970-01-01 01:00:00
##  2 1st Super-Size Painting - Social Network Owned (Ca… 1970-01-01 01:00:00
##  3 "\"ICHOR\"  (Canceled)"                             1970-01-01 01:00:00
##  4 "Support Solo Theater! Help \"Ungrateful Daughter\… 1970-01-01 01:00:00
##  5 Help RIZ Make A Charity Album: 8 Songs, 8 Causes, … 1970-01-01 01:00:00
##  6 Identity Communications Infographic (Canceled)      1970-01-01 01:00:00
##  7 Student Auditions Music 2015                        1970-01-01 01:00:00
##  8 Grace Jones Does Not Give A F$#% T-Shirt (limited … 2009-04-21 21:02:48
##  9 CRYSTAL ANTLERS UNTITLED MOVIE                      2009-04-23 00:07:53
## 10 drawing for dollars                                 2009-04-24 21:52:03
## # ... with 378,647 more rows
```
…
---

### Fundings

I started analyzing columns referring to **pledged money**: for each possible currency, this dataset contains the corresponding pledged money in USD as `usd_pledged_real`.


```
## # A tibble: 69,488 x 3
##    currency  pledged usd_pledged_real
##    <chr>       <dbl>            <dbl>
##  1 GBP      94175.         121857.   
##  2 AUD          1.00            0.810
##  3 NOK         48.0             6.29 
##  4 CAD      48905.          42174.   
##  5 GBP        112.            161.   
##  6 GBP         21.0            31.1  
##  7 AUD       2000.           1427.   
##  8 CAD        592.            473.   
##  9 EUR        137.            151.   
## 10 CAD        700.            535.   
## # ... with 69,478 more rows
```
---
It also contains all conversions for goal fundings.


```
## # A tibble: 69,494 x 5
##    currency   goal usd_goal_real usd_pledged_real state     
##    <chr>     <dbl>         <dbl>            <dbl> <chr>     
##  1 GBP       5000.        6470.        121857.    successful
##  2 AUD       2500.        2026.             0.810 failed    
##  3 NOK        500.          65.6            6.29  failed    
##  4 CAD      17757.       15313.         42174.    successful
##  5 GBP        100.         143.           161.    successful
##  6 GBP       3500.        5181.            31.1   failed    
##  7 AUD       2000.        1427.          1427.    successful
##  8 CAD       3000.        2396.           473.    live      
##  9 EUR      12000.       13202.           151.    failed    
## 10 CAD      15000.       11466.           535.    canceled  
## # ... with 69,484 more rows
```
…
These are the names of successful projects containing the first five most frequent words:


```
## # A tibble: 27,083 x 1
##    name                                                     
##    <chr>                                                    
##  1 Lisa Lim New CD!                                         
##  2 Tombstone: Old West tabletop game and miniatures in 32mm.
##  3 CMUK. Shoes: Take on Life Feet First.                    
##  4 The Book Zoo - A Mini-Comic                              
##  5 My Moon - Animated Short Film                            
##  6 Ledr workbook: one tough journal!                        
##  7 Chris Eger Band - New Nashville Record!                  
##  8 Zen in America: a film on Zen Buddhism in North America  
##  9 Help Scott Reynolds Make a New Record!                   
## 10 Phil Younger - Slow Down (Official Music Video)          
## # ... with 27,073 more rows
```
…
